{
  "images" : [
    {
      "filename" : "400x240.pdf",
      "idiom" : "tv",
      "scale" : "1x"
    },
    {
      "filename" : "400x240-1.pdf",
      "idiom" : "tv",
      "scale" : "2x"
    }
  ],
  "info" : {
    "author" : "xcode",
    "version" : 1
  }
}
